ResourceId,StartDate,EndDate
640,2021-02-19T21:00:00.000Z,2021-05-16T21:00:00.000Z
649,2022-05-12T21:00:00.000Z,2024-06-24T21:00:00.000Z
608,2022-08-23T21:00:00.000Z,2023-01-25T21:00:00.000Z
684,2021-01-30T21:00:00.000Z,2022-02-09T21:00:00.000Z
620,2022-04-05T21:00:00.000Z,2023-07-25T21:00:00.000Z
992,2022-01-29T21:00:00.000Z,2023-12-14T21:00:00.000Z
639,2022-10-12T21:00:00.000Z,2024-04-15T21:00:00.000Z
299,2021-05-19T21:00:00.000Z,2022-07-31T21:00:00.000Z
815,2022-10-01T21:00:00.000Z,2023-10-20T21:00:00.000Z
815,2022-10-01T21:00:00.000Z,2023-10-20T21:00:00.000Z
815,2022-10-01T21:00:00.000Z,2023-10-20T21:00:00.000Z
815,2022-10-01T21:00:00.000Z,2023-10-20T21:00:00.000Z
815,2022-10-01T21:00:00.000Z,2023-10-20T21:00:00.000Z
815,2022-10-01T21:00:00.000Z,2023-10-20T21:00:00.000Z
815,2022-10-01T21:00:00.000Z,2023-10-20T21:00:00.000Z
815,2022-10-01T21:00:00.000Z,2023-10-20T21:00:00.000Z
